…
# data cleaning
tidy_data = 
brfss_smart2010 %>% 
  janitor::clean_names() %>% 
  # focus on the "Overall Health" topic
  filter(topic == "Overall Health") %>% 
  # include only responses from "Excellent" to "Poor"
  filter (response == c("Excellent", "Very good", "Good", "Fair", "Poor")) %>% 
  # organize responses as a factor taking levels ordered from “Poor” to “Excellent”
  mutate(response = forcats::fct_relevel(response, c("Poor", "Fair", "Good", "Very good", "Excellent"))) %>% 
  arrange(response)
tidy_data
```

    ## # A tibble: 7,121 x 23
    ##     year locationabbr locationdesc class topic question response
    ##    <int> <chr>        <chr>        <chr> <chr> <chr>    <fct>   
    ##  1  2010 AL           AL - Jeffer… Heal… Over… How is … Poor    
    ##  2  2010 AL           AL - Mobile… Heal… Over… How is … Poor    
    ##  3  2010 AL           AL - Tuscal… Heal… Over… How is … Poor    
    ##  4  2010 AZ           AZ - Marico… Heal… Over… How is … Poor    
    ##  5  2010 AZ           AZ - Pinal … Heal… Over… How is … Poor    
    ##  6  2010 AR           AR - Benton… Heal… Over… How is … Poor    
    ##  7  2010 AR           AR - Pulask… Heal… Over… How is … Poor    
    ##  8  2010 AR           AR - Washin… Heal… Over… How is … Poor    
    ##  9  2010 CA           CA - Alamed… Heal… Over… How is … Poor    
    ## 10  2010 CA           CA - Los An… Heal… Over… How is … Poor    
    ## # … with 7,111 more rows, and 16 more variables: sample_size <int>,
    ## #   data_value <dbl>, confidence_limit_low <dbl>,
    ## #   confidence_limit_high <dbl>, display_order <int>,
    ## #   data_value_unit <chr>, data_value_type <chr>,
    ## #   data_value_footnote_symbol <chr>, data_value_footnote <chr>,
    ## #   data_source <chr>, class_id <chr>, topic_id <chr>, location_id <chr>,
    ## #   question_id <chr>, respid <chr>, geo_location <chr>

``` r
# Q1: In 2002, which states were observed at 7 or more locations? What about in 2010?
# year 2002
tidy_data %>% 
  # set year = 2002
  filter(year == 2002) %>% 
  # count the number of locations that each state was observed at
  group_by(locationabbr) %>% 
  summarise(number_of_locations = n()) %>% 
  # set observations at 7 or more locations
  filter(number_of_locations >= 7)
```

    ## # A tibble: 21 x 2
    ##    locationabbr number_of_locations
    ##    <chr>                      <int>
    ##  1 CT                            17
    ##  2 DE                            15
    ##  3 FL                            30
    ##  4 ID                            10
    ##  5 IL                            15
    ##  6 IN                            10
    ##  7 MA                            15
    ##  8 MD                            17
    ##  9 MI                            10
    ## 10 NE                             8
    ## # … with 11 more rows

``` r
# year 2010
tidy_data %>% 
  # set tear = 2010
  filter(year == 2010) %>% 
  # count the number of locations that each state was observed at
  group_by(locationabbr) %>% 
  summarise(number_of_locations = n()) %>%
  # set observations at 7 or more locations
  filter(number_of_locations >= 7)
```

    ## # A tibble: 38 x 2
    ##    locationabbr number_of_locations
    ##    <chr>                      <int>
    ##  1 AL                            15
    ##  2 AR                            15
    ##  3 AZ                            10
    ##  4 CA                            55
    ##  5 CO                            35
    ##  6 DE                            15
    ##  7 FL                           139
    ##  8 ID                            20
    ##  9 IN                             8
    ## 10 KS                            11
    ## # … with 28 more rows
…
## Problem 3

``` r
accel_data = 
  # load, tidy the data
  read_csv("data/accel_data.csv") %>%
  janitor::clean_names() %>%
  # include a weekday vs weekend variable
  mutate(weekday_vs_weekend =
         ifelse(day %in% c("Saturday", "Sunday"), "weekend", "weekday")) %>% 
  select(week, day_id, day, weekday_vs_weekend, everything())
accel_data
```

    ## # A tibble: 35 x 1,444
    ##     week day_id day   weekday_vs_week… activity_1 activity_2 activity_3
    ##    <dbl>  <dbl> <chr> <chr>                 <dbl>      <dbl>      <dbl>
    ##  1     1      1 Frid… weekday                88.4       82.2       64.4
    ##  2     1      2 Mond… weekday                 1          1          1  
    ##  3     1      3 Satu… weekend                 1          1          1  
    ##  4     1      4 Sund… weekend                 1          1          1  
    ##  5     1      5 Thur… weekday                47.4       48.8       46.9
    ##  6     1      6 Tues… weekday                64.8       59.5       73.7
    ##  7     1      7 Wedn… weekday                71.1      103.        68.5
    ##  8     2      8 Frid… weekday               675        542       1010  
    ##  9     2      9 Mond… weekday               291        335        393  
    ## 10     2     10 Satu… weekend                64         11          1  
    ## # … with 25 more rows, and 1,437 more variables: activity_4 <dbl>,
    ## #   activity_5 <dbl>, activity_6 <dbl>, activity_7 <dbl>,
    ## #   activity_8 <dbl>, activity_9 <dbl>, activity_10 <dbl>,
    ## #   activity_11 <dbl>, activity_12 <dbl>, activity_13 <dbl>,
    ## #   activity_14 <dbl>, activity_15 <dbl>, activity_16 <dbl>,
    ## #   activity_17 <dbl>, activity_18 <dbl>, activity_19 <dbl>,
    ## #   activity_20 <dbl>, activity_21 <dbl>, activity_22 <dbl>,
    ## #   activity_23 <dbl>, activity_24 <dbl>, activity_25 <dbl>,
    ## #   activity_26 <dbl>, activity_27 <dbl>, activity_28 <dbl>,
…
``` r
accel_data %>%  
  mutate(total_activity_daily = rowSums(.[5:1444])) %>% 
  select(week, day_id, day, weekday_vs_weekend, total_activity_daily)
```

    ## # A tibble: 35 x 5
    ##     week day_id day       weekday_vs_weekend total_activity_daily
    ##    <dbl>  <dbl> <chr>     <chr>                             <dbl>
    ##  1     1      1 Friday    weekday                         480543.
    ##  2     1      2 Monday    weekday                          78828.
    ##  3     1      3 Saturday  weekend                         376254 
    ##  4     1      4 Sunday    weekend                         631105 
    ##  5     1      5 Thursday  weekday                         355924.
    ##  6     1      6 Tuesday   weekday                         307094.
    ##  7     1      7 Wednesday weekday                         340115.
    ##  8     2      8 Friday    weekday                         568839 
    ##  9     2      9 Monday    weekday                         295431 
    ## 10     2     10 Saturday  weekend                         607175 
    ## # … with 25 more rows
